﻿[
  {
    "outputFile": "css/masterStyle.css",
    "inputFile": "scss/masterStyle.scss"
  },
  {
    "outputFile": "css/playStyle.css",
    "inputFile": "scss/playStyle.scss"
  },
  {
    "outputFile": "css/bootstrap-chosen.css",
    "inputFile": "scss/bootstrap-chosen/bootstrap-chosen.scss"
  }
]